<svg xmlns="http://www.w3.org/2000/svg" width="23.181" height="18" viewBox="0 0 23.181 18">
  <path id="icon-check-primary" d="M8.877,18.059a1.183,1.183,0,0,1-1.674,0L.52,11.376a1.775,1.775,0,0,1,0-2.51l.837-.837a1.775,1.775,0,0,1,2.511,0L8.04,12.2,19.314.926a1.775,1.775,0,0,1,2.511,0l.837.837a1.775,1.775,0,0,1,0,2.51Zm0,0" transform="translate(0 -0.406)" fill="#02562e"/>
</svg>
