<svg xmlns="http://www.w3.org/2000/svg" width="21.042" height="20" viewBox="0 0 21.042 20">
  <g id="icon-home" transform="translate(0 -12.676)">
    <g id="Group_72" data-name="Group 72" transform="translate(0 12.675)">
      <g id="Group_71" data-name="Group 71" transform="translate(0 0)">
        <path id="Path_109" data-name="Path 109" d="M20.688,21.561l-9.441-8.6a1.074,1.074,0,0,0-1.453,0l-9.441,8.6a1.079,1.079,0,0,0,.727,1.877H2.588v8.619a.619.619,0,0,0,.619.619H8.381A.619.619,0,0,0,9,32.057V26.823h3.041v5.233a.619.619,0,0,0,.619.619h5.174a.619.619,0,0,0,.619-.619V23.438h1.508a1.079,1.079,0,0,0,.727-1.877Z" transform="translate(0 -12.675)" fill="#0b4e80"/>
      </g>
    </g>
    <g id="Group_74" data-name="Group 74" transform="translate(13.821 13.967)">
      <g id="Group_73" data-name="Group 73" transform="translate(0 0)">
        <path id="Path_110" data-name="Path 110" d="M348.319,42.73h-4.346l4.993,4.54V43.377A.647.647,0,0,0,348.319,42.73Z" transform="translate(-343.973 -42.73)" fill="#0b4e80"/>
      </g>
    </g>
  </g>
</svg>
