<svg id="icon-add-white-circle" xmlns="http://www.w3.org/2000/svg" width="20" height="20" viewBox="0 0 20 20">
  <g id="Group_10214" data-name="Group 10214">
    <path id="Path_5062" data-name="Path 5062" d="M10.039,0A10.039,10.039,0,0,0,0,9.961,10.106,10.106,0,0,0,10.039,20a10,10,0,0,0,0-20Zm5.273,11.133h-4.1v4.18a1.172,1.172,0,0,1-2.344,0v-4.18H4.688a1.172,1.172,0,0,1,0-2.344h4.18v-4.1a1.172,1.172,0,0,1,2.344,0v4.1h4.1a1.172,1.172,0,0,1,0,2.344Z" fill="#fff"/>
  </g>
</svg>
