<svg id="icon-file-type-unknow" xmlns="http://www.w3.org/2000/svg" width="50" height="50" viewBox="0 0 50 50">
  <path id="Path_5126" data-name="Path 5126" d="M64,0V50H93.138l12.488-12.5V0Z" transform="translate(-55.626)" fill="#efeeee"/>
  <path id="Path_5127" data-name="Path 5127" d="M288,288v12.561L300.561,288Z" transform="translate(-250.561 -250.561)" fill="#ababab"/>
  <path id="Path_5128" data-name="Path 5128" d="M192,300.561h12.561V288Z" transform="translate(-167.041 -250.561)" fill="#dededd"/>
  <path id="Path_5129" data-name="Path 5129" d="M0,96v14.655H33.5V96Z" transform="translate(0 -83.525)" fill="none"/>
</svg>
