<svg id="icon-asset-fund-detial-no-frame" xmlns="http://www.w3.org/2000/svg" width="35.825" height="35.825" viewBox="0 0 35.825 35.825">
  <path id="Path_5056" data-name="Path 5056" d="M134.974,125.869a9.105,9.105,0,1,0,9.105,9.105A9.116,9.116,0,0,0,134.974,125.869Zm0,8.056a3.556,3.556,0,0,1,3.706,3.374,3.439,3.439,0,0,1-2.656,3.235V141.7h-2.1v-1.168a3.439,3.439,0,0,1-2.656-3.235h2.1a1.65,1.65,0,1,0,1.607-1.275,3.555,3.555,0,0,1-3.706-3.374,3.439,3.439,0,0,1,2.656-3.235v-1.168h2.1v1.168a3.439,3.439,0,0,1,2.656,3.235h-2.1a1.65,1.65,0,1,0-1.607,1.275Z" transform="translate(-117.062 -117.062)" fill="#fff"/>
  <path id="Path_5057" data-name="Path 5057" d="M35.825,22.495V13.331H33.291a15.933,15.933,0,0,0-1.264-3.052l1.792-1.793-6.48-6.48L25.546,3.8a15.927,15.927,0,0,0-3.052-1.265V0H13.331V2.535A15.923,15.923,0,0,0,10.279,3.8L8.487,2.007l-6.48,6.48L3.8,10.279a15.932,15.932,0,0,0-1.265,3.052H0v9.164H2.535A15.932,15.932,0,0,0,3.8,25.546L2.007,27.339l6.48,6.48,1.793-1.793a15.926,15.926,0,0,0,3.052,1.265v2.534h9.164V33.291a15.928,15.928,0,0,0,3.052-1.265l1.793,1.793,6.48-6.48-1.792-1.793a15.93,15.93,0,0,0,1.264-3.052ZM17.913,29.117a11.2,11.2,0,1,1,11.2-11.2,11.217,11.217,0,0,1-11.2,11.2Z" fill="#fff"/>
</svg>
