<svg id="icon-edit" xmlns="http://www.w3.org/2000/svg" width="18.088" height="18" viewBox="0 0 18.088 18">
  <path id="Path_53" data-name="Path 53" d="M11.248,4.293l3.68,3.68L5.614,17.286l-3.677-3.68Zm6.472-.887L16.079,1.764a1.628,1.628,0,0,0-2.3,0L12.207,3.336l3.68,3.68L17.72,5.182A1.254,1.254,0,0,0,17.72,3.405ZM.011,18.778a.419.419,0,0,0,.507.5l4.1-.994L.94,14.6Z" transform="translate(-0.001 -1.289)" fill="#02562e"/>
</svg>
